{infiltrodisc}
…
csv_data <- dir_ls("data", regexp = "\\.csv$")

data_infiltration <- 
csv_data %>% 
  map_dfr(read_csv, .id = "source") %>% 
  mutate(source = str_sub(source, start = 12, end = -5)) %>% 
  rename(soil = source)

Tutorial part 1: data wrangling

Three columns: soil ID, time and volume

data_infiltration

# A tibble: 23 × 3
   soil   time volume
   <chr> <dbl>  <dbl>
 1 a         0     93
 2 a         5     89
 3 a        10     86
 4 a        15     83
 5 a        20     80
 6 a        25     77
 7 a        30     75
 8 a        35     73
 9 b         0     95
10 b        10     91
# ℹ 13 more rows
…
Tutorial part 2: functions

First, we use the infiltration() function

library(infiltrodiscR)

data_infiltration_all %>% 
  mutate(data = map(data, ~ infiltration(.), data = .x)) %>% 
  unnest(data) # let's check the data nested created

# A tibble: 23 × 11
# Groups:   soil [3]
   soil   time volume sqrt_time volume_infiltrated infiltration  sand  silt
   <chr> <dbl>  <dbl>     <dbl>              <dbl>        <dbl> <dbl> <dbl>
 1 a         0     93      0                     0         0       40    40
 2 a         5     89      2.24                  4         0.25    40    40
 3 a        10     86      3.16                  7         0.44    40    40
 4 a        15     83      3.87                 10         0.63    40    40
 5 a        20     80      4.47                 13         0.82    40    40
 6 a        25     77      5                    16         1.01    40    40
 7 a        30     75      5.48                 18         1.13    40    40
 8 a        35     73      5.92                 20         1.26    40    40
 9 b         0     95      0                     0         0       20    30
10 b        10     91      3.16                  4         0.25    20    30
# ℹ 13 more rows
# ℹ 3 more variables: clay <dbl>, suction <chr>, texture <chr>
…
